com\qa\pages\ContactsPage.class
com\qa\pages\LoginPage.class
com\qa\pages\CompaniesPage.class
com\qa\pages\HomePage.class
com\qa\ExtentReportListener\ExtentReporterListener.class
com\qa\utils\ExcelUtil.class
com\qa\config\ConstantUtil.class
com\qa\utils\TestUtil.class
com\qa\base\TestBase.class
