C:\Users\bala\eclipse-workspace\CRMTest\src\test\java\com\qa\testcases\HomePageTest.java
C:\Users\bala\eclipse-workspace\CRMTest\src\test\java\com\qa\testcases\ContactsPageTest.java
C:\Users\bala\eclipse-workspace\CRMTest\src\test\java\com\qa\testcases\CompaniesPageTest.java
C:\Users\bala\eclipse-workspace\CRMTest\src\test\java\com\qa\testcases\LoginPageTest.java
